[
  {
    "name": "Encontro",
    "duration": 14.0,
    "price": 600.0,
    "theme": "ELEGANT"
  },
  {
    "name": "Tuakana",
    "duration": 27.0,
    "price": 900.0,
    "theme": "URBAN"
  },
  {
    "name": "Mana O Te Ra",
    "duration": 17.0,
    "price": 500.0,
    "theme": "URBAN"
  },
  {
    "name": "Fire-Eating",
    "duration": 6.0,
    "price": 400.0,
    "theme": "BAROQUE"
  }
]